103.57.80.56:4145
109.160.55.202:4145
109.162.249.8:1085
103.230.152.134:10801
109.196.229.23:11337
109.245.236.109:4145
118.45.214.75:1080
176.10.54.74:4145
142.93.170.92:1080
151.80.201.162:1080
147.135.204.96:1080
155.133.83.109:58351
131.196.141.149:50489
176.32.177.30:51870
176.106.186.35:4145
185.116.254.18:4145
185.27.60.83:53292
185.116.254.5:4145
185.116.254.19:4145
185.122.54.20:61396
185.220.50.253:4145
185.132.228.57:4145
185.116.254.8:4145
79.101.105.74:39046
5.56.133.56:42659
5.56.133.117:9194
37.131.164.124:59341
46.98.127.20:3629
46.219.80.142:45237
37.131.164.102:59341
46.107.230.122:1080
106.14.222.35:53098
146.120.81.73:52658
185.34.88.5:4145
185.81.106.52:3629
185.188.218.14:4145
46.63.81.195:4145
47.101.185.243:8060
185.49.93.126:13080
185.183.93.141:4145
185.220.50.201:4145
186.249.23.87:38717
188.241.45.61:4145
193.77.242.110:4145
188.75.139.60:4145
149.34.6.162:4145
185.49.93.113:13080
185.218.29.222:30211
188.165.138.11:54430
193.105.62.11:58973
193.85.228.178:47747
195.29.155.98:58617
193.106.231.145:4145
194.152.244.114:44836
193.85.228.182:47747
194.44.230.115:1080
194.28.15.137:1080
195.22.117.1:4145
109.238.223.1:51372
109.238.208.138:51372
109.101.196.50:4145
109.92.141.118:4153
125.94.180.215:38801
176.118.48.226:4145
178.54.6.222:4145
176.223.1.70:4145
167.99.87.173:1080
176.103.174.198:4153
176.113.209.13:1080
178.48.68.53:4145
194.44.160.246:31366
217.27.219.14:35342
195.239.115.106:42020
212.200.101.22:61181
213.81.178.129:4145
212.233.213.29:4145
194.228.84.10:4145
213.190.50.166:1080
84.1.150.59:47028
77.48.137.3:50523
77.48.137.65:50523
5.56.133.57:1080
51.89.8.187:1080
51.254.182.54:1000
78.41.174.197:47411
5.102.58.41:11337
109.251.192.80:1080
109.238.219.225:4153
178.150.237.198:4145
178.215.163.218:4145
176.118.55.25:1080
194.44.243.186:45529
212.109.39.180:4145
212.72.47.218:54321
213.81.178.248:4145
195.211.84.104:4145
109.61.112.10:54631
52.144.70.194:4145
109.238.219.241:4153
78.133.163.190:4145
178.48.68.61:4145
79.137.112.61:59598
109.92.206.166:4153
109.61.117.2:59464
217.77.171.114:4145
213.81.178.134:4145
213.219.210.182:4145
88.146.204.49:4153
81.183.210.46:4145
78.134.90.115:51372
89.120.140.249:4145
86.47.252.137:4145
213.81.178.251:4145
89.164.3.112:1080
89.137.11.41:4145
79.77.48.143:4145
217.145.199.45:40307
89.216.57.254:4145
91.203.25.24:1080
82.117.213.30:4145
217.21.60.36:1080
91.183.222.209:1080
91.92.79.234:4145
82.135.136.132:4145
91.183.53.241:4145
95.143.135.51:4145
83.219.158.123:4145
91.200.125.75:4145
95.158.1.26:43020
86.100.63.127:4145
91.228.89.11:4145
92.247.125.225:4153
89.133.180.22:41283
94.247.16.29:51870
89.207.92.107:4145
91.121.33.63:1000
91.200.114.243:44550
94.40.127.166:4145
62.112.193.15:1080
82.209.216.156:1080
62.168.57.109:41983
78.60.130.181:55407
77.70.35.87:57509
62.176.87.170:4145
86.28.76.189:4145
80.50.141.118:40340
77.92.53.7:4145
89.234.211.142:4145
80.59.233.178:60008
82.114.94.68:59311
78.11.32.28:52036
89.24.210.10:4145
80.95.109.6:4145
82.114.94.69:59311
78.154.180.12:1080
91.231.127.89:4145
84.255.203.218:4145
85.207.53.66:59380
81.82.82.45:4145
92.207.253.226:4145
85.222.191.222:48319
85.239.121.168:4145
82.177.87.98:33823
93.64.183.162:32889
88.203.202.102:4145
88.119.128.181:4145
83.219.149.199:4145
95.163.141.85:4145
91.83.42.1:44550
91.187.75.48:37901
85.13.226.184:49597
93.163.52.152:4145
85.135.95.218:4145
92.242.255.37:51372
94.136.157.114:60030
86.101.129.233:4145
87.126.68.178:1080
94.154.18.59:4145
91.210.237.71:4145
88.100.162.153:4145
90.183.152.178:4145
91.213.119.246:46024
95.143.135.226:53353
